{
    "en": {  
        "main_title": "#### 🦝 Windrecorder",
        
        "tab_name_oneday": "Daily",
        "tab_name_search": "Search",
        "tab_name_stat": "Summary",
        "tab_name_recording": "Recording & Video Storage",
        "tab_name_setting": "Settings",

        "text_search_keyword": "Search Keyword",
        "text_search_daterange": "Date Range",
        "text_search_not_found": "No results found for \"{search_content}\".",
        "utils_toast_setting_saved": "Changes applied.",
        "footer_info": "Earliest record time: **{first_record_time_str}**, latest record time: **{latest_record_time_str}**, index lines: **{latest_db_records}**, video storage: **{videos_file_size} GB** ({videos_files_count} video files)",
        "footer_info_help": "There may be a delay of up to two days in updating statistics.",

        "text_welcome_to_windrecorder":"Welcome to Windrecorder!",
        "text_updating_month_stat": "Updating statistics for this month...",
        "text_updating_yearly_stat": "Updating statistics for this year...",
        
        "oneday_title": "### 🖼️ Daily",
        "oneday_btn_yesterday": "← Prev Day",
        "oneday_btn_tomorrow": "Next Day →",
        "oneday_btn_today": "Today",
        "oneday_toggle_search": "Search",
        "oneday_toggle_search_help": "Separate multiple keywords with spaces. Press Enter without entering any content to list all data in day.",
        "oneday_search_md_none": "<p align='center' style='line-height:2.3;'> ⚠ No results found </p>",
        "oneday_search_md_result": "<p align='center' style='line-height:2.3;'> → {result_num} results: </p>",
        "oneday_text_generate_timeline_thumbnail": "Generating timeline thumbnails for day...",
        "oneday_md_no_enough_thunmbnail_for_timeline": "<p align='center' style='color:rgba(0,0,0,.3)'> Not enough thumbnails to generate timeline for the day. </p>",
        "oneday_md_rewinding_video_name": "`Rewinding {day_video_file_name}`",
        "oneday_text_not_found_vid_but_has_data": "Video file for this time not found on disk, but text data nearby is available for retrieval.",
        "oneday_text_data_indexing_wait_and_refresh": "Indexing data, please wait a few minutes and refresh.",
        "oneday_text_no_found_record_and_vid_on_disk": "No video file or record found on disk for this time.",
        "oneday_text_has_vid_but_not_index": "No data index in the database for this day. However, there is a video on disk wait to be indexed.",
        "oneday_text_vid_and_data_not_found": "Data index and video file not found for this day.",
        "oneday_text_flag_mark_help": "When you want to add a mark to an important meeting, emergency situation, certain live broadcast, game or movie viewing highlight moment, etc. to facilitate future review, you can add a mark to the present moment through the tray menu.",
        "oneday_text_help_locate_manually": "Limited by streamlit capabilities, currently can only manually locate back to timestamp.",
        "oneday_toggle_flag_mark": "Time mark list",
        "oneday_btn_add_flag_mark_from_select_time": "Add a mark on positioned time",
        "oneday_btn_flag_mark_save_df": "Save changes",
        "oneday_wt_text": "Screen Time",
        "oneday_wt_help": "The statistics may have deviations and are for reference only.",
        "oneday_ls_title_wintitle": "⏱️ Activity Statistics",
        "oneday_ls_title_flag_note": "🚩 All Flag Note",
        "oneday_ls_text_no_wintitle_stat": "<p align='left' style='color:rgba(0,0,0,.3)'> No activity data for the day </p>",
        "oneday_ls_text_no_wintitle_stat_momnth": "<p align='left' style='color:rgba(0,0,0,.3)'> No activity data for the month </p>",
        "oneday_ls_text_disable_leftside": "<p align='center' style='color:rgba(0,0,0,.3)'> Sidebar closed, enable in Settings. </p>",

        "gs_md_search_title": "### 🔎 Search",
        "gs_input_exclude": "Exclude",
        "gs_input_search_help": "Separate multiple keywords with spaces. The window title can also be used as keyword.",
        "gs_input_exclude_help": "Leave blank for no exclusion. Multiple keywords can be separated by space.",
        "gs_text_pls_choose_full_date_range": "Please select a complete time range",
        "gs_input_result_page": "Result pages",
        "gs_md_search_result_stat": "Found {all_result_counts} results in {max_page_count} pages for \"{search_content}\".",
        "gs_md_synonyms_recommend": "Also try: {synonyms_recommend}",
        "gs_md_search_result_below": "`Time cost: {timecost}s`",
        "gs_text_intro": "This is the global search page where you can search all the recorded content to date. Press Enter to search after entering the keywords.",
        "gs_slider_to_rewind_result": "Drag to rewind search results",
        "gs_text_randomwalk": "Random Walk",
        "gs_text_video_file_not_on_disk": "Video File **{df_videofile_name}** not on disk.",
        "gs_option_ocr_text_search": "OCR Text search",
        "gs_option_img_emb_search": "Image semantic search",
        "gs_option_similar_img_search": "Search images with image",
        "gs_input_img_emb_search": "Use natural language to describe images",
        "gs_text_img_emb_help": "Use natural language to describe the content of the image. The more precise the description, the closer the result will found. Up to 21 languages such as Chinese, English, Japanese, and Korean are supported here (detailed uform document). The video needs to be embedded after indexing Only by searching, seeing the Setting description for details.",
        "gs_text_searching": "Searching, please stand by...",
        "gs_text_loading_embed_model": "Loading Embedding model...",
        "gs_text_upload_img": "Select image",
        "gs_text_upload_img_help": "The embedding model tends to search based on the semantics of the image content rather than matching the characteristics of the image itself.",
        "gs_text_not_install_img_emb": "The Image Embedding module is not enabled or installed. Please go to the settings page to enable it. If there are no relevant options in the settings, please install the image semantic module first. The installation script could be found at the Windrecorder directory: extension\\install_img_embedding_module\\install_img_embedding_module.bat",

        "stat_md_month_title": "### 🌖 Monthly Statistics",
        "stat_md_year_title": "### 🎏 {stat_year_title} Statistics",
        "stat_md_memory_title": "### 🧩 Memory Summary",
        "stat_btn_generate_update_word_cloud": "Generate/Update Monthly Word Cloud",
        "stat_text_generating_word_cloud": "Generating, it might takes about 30s...",
        "stat_text_no_month_word_cloud_pic": "No word cloud image for this month.",
        "stat_btn_generate_lightbox": "Generate/Update Monthly Lightbox",
        "stat_text_generating_lightbox": "Generating, it might takes about 5s...",
        "stat_text_no_month_lightbox": "No lightbox image for this month.",
        "stat_text_counting": "Counting...",
        "stat_text_wintitle_keyword_filter": "Keyword filter",
        "stat_text_wintitle_filter_help": "Separate multiple keywords by spaces to search. Case will be ignored when searching for keywords. Leave blank to list all data for the current month.",

        "rs_text_need_to_restart_after_save_setting": "After saving the settings on this page, you need to restart 'Windrecorder' to take effect.",
        "rs_md_title": "### 📼 Recording & Video Storage",
        "rs_md_record_setting_title": "#### Recording options",
        "rs_checkbox_start_record_when_startup": "Run on system startup",
        "rs_checkbox_start_record_when_startup_help": "After applied, a shortcut will be created for 'start_app.bat' and placed in the system's startup directory. This behavior may be misjudged as a virus and cause 'start_webui.bat' to be removed by some security software, if any interception, please remove it from the isolation area and mark it as trusted software. Or manually create a shortcut for 'start_app.bat' and place it in the system's startup folder.",
        "rs_checkbox_is_start_recording_on_start_app": "Start recording after app started",
        "rs_input_stop_recording_when_screen_freeze": "Skip recording the next video clip when screen has not changed for minutes (0 for never pause)",
        "rs_text_skip_recording_by_wintitle": "Skip recording the next video clip and index to database when the title of the current application or OCR text contain one of the following words:",
        "rs_tag_input_tip": "Enter to add",
        "rs_text_ocr_manual_update": "Manual index only",
        "rs_text_ocr_auto_update": "Automatically index when the video clip is recorded (Recommended)",
        "rs_selectbox_ocr_strategy": "OCR Indexing Strategy",
        "rs_input_vid_store_time_help": "0 for never delete.",
        "rs_input_vid_compress_time": "Compress original video after days",
        "rs_input_vid_compress_time_help": "0 for never compress.",
        "rs_selectbox_compress_ratio": "Picture compression ratio",
        "rs_selectbox_compress_ratio_help": "0.75 times scaling can compress the original video size to 1/4, 0.5 times to 1/8, 0.25 times to 1/16. Compression ratio may vary depending on the video's specific content.",
        "rs_checkbox_enable_half_res_while_hidpi": "For 'high DPI/high resolution screens', scale to quarter resolution when recording",
        "rs_text_compress_encoder": "Encoding method",
        "rs_text_compress_accelerator": "Encoding accelerator",
        "rs_text_compress_CRF": "Quality CRF",
        "rs_text_compress_CRF_help": "CRF is the abbreviation of Constant Rate Factor, which is used to set the quality and bit rate control of video encoding. Windrecorder is set to 39 by default for a higher compression rate. In ffmpeg, the value range of CRF depends on The encoder used. For x264 encoders, the CRF value range is 0 to 51, where 0 means lossless, 23 is the default value, and 51 means the worst quality. Lower values mean higher quality, but Will result in a larger file size. Typically, the reasonable value range for x264 encoders is 18 to 28. For x265 encoders, the default CRF value is 28. For libvpx encoders, the CRF value range is 0 to 63. In general, the lower the CRF value, the higher the video quality, but the file size will increase accordingly.",
        "rs_text_estimate_hint": "Estimated video size recorded every 15 minutes: {min}Mb ~ {max}Mb, depending on the specific recording content and the number of displays.",
        "rs_btn_encode_benchmark": "Test supported encoding methods ♘",
        "rs_text_encode_benchmark_loading": "Testing, it will take about 1 minute...",
        "rs_text_support": "Support",
        "rs_text_compress_ratio": "Compression ratio ❓",
        "rs_text_compress_ratio_help": "Compression ratio = compressed video file size/original video file size. The provided test video file is short, and there may be a large deviation in the presentation of this indicator. As the video time increases, the compression rate will be relatively higher .You can replace the __assets__\\test_video_compress.mp4 file for testing.",
        "rs_text_compress_time": "Compression time (s)",
        "rs_text_record_strategy_option_all": "Record all displays ({num} total)",
        "rs_text_record_strategy_option_single": "Record one display only",
        "rs_text_record_range": "Screen recording range",
        "rs_text_record_single_display_select": "Record display only:",
        "rs_text_show_encode_option": "Show advanced encoding options",
        "rs_text_record_encoder": "Recording Encoder",
        "rs_text_record_help": "Choose h265/AV1 to get better image quality in the same file size, but the performance may be affected during recording and playback. (If supported, hardware acceleration will be automatically enabled)",
        "rs_text_record_bitrate": "Recording Bitrate (kbps)",
        "rs_text_bitrate_help": "Video bitrate refers to the transmission speed or processing speed of video data, which will affect the video quality and file size. Specifically, the higher the bitrate, the better the video quality, but the corresponding file The size will also be larger. On the contrary, if the bit rate is lower, the video quality may be blurred or distorted even at the same resolution. In order to keep the picture size smaller, the default is 200kbps.",

        "set_md_title": "### ⚙️ Settings",
        "set_md_index_db": "#### Database Index\n",
        "set_checkbox_shutdown_after_updated": "Shutdown after indexed",
        "set_selectbox_local_ocr_engine": "Local OCR Engine",
        "set_selectbox_ocr_lang": "Main OCR language",
        "set_selectbox_local_ocr_engine_help": "It is recommended to use Windows built-in Windows.Media.Ocr.Cli for OCR, which is faster and consumes less resources.",
        "set_md_ocr_ignore_area": "**OCR area to ignore on the display edges**",
        "set_md_ocr_ignore_area_help": "Enter number as percentage, i.e., '6' == 6%. This option allows to ignore elements at the edges of the screen during OCR, such as browser tabs, Windows Start Menu, in-page advertisements, etc.",
        "set_toggle_use_screenshot_as_refer": "Use current display as reference",
        "set_text_choose_displays": "Choose displays",
        "set_text_top_padding":"Top Padding",
        "set_text_bottom_padding":"Bottom Padding",
        "set_text_left_padding":"Left Padding",
        "set_text_right_padding":"Right Padding",
        "set_checkbox_enable_3_columns_in_oneday": "Daily - Use center three-column layout",
        "set_help_enable_3_columns_in_oneday": "The three-column layout is suitable for larger webui display devices and can provide more information and center the traceback screen. The default two-column layout is suitable for smaller webui display devices.",
        "set_checkbox_use_similar_zh_char_to_search": "Use Chinese similar characters for searching",
        "set_checkbox_use_similar_zh_char_to_search_help": "OCR may misrecognize similar characters, enabling this option will search for similar shapes simultaneously to the keyword, improving the hit rate of the results.",
        "set_input_wordcloud_filter": "Filter the following words in the word cloud generation:",
        "set_input_wordcloud_filter_help": "Some UI keywords may persistently appear, resulting in higher frequency in the data. Here, you can exclude them from the word cloud's statistics.",
        "set_input_oneday_timeline_thumbnail_num": "Daily - timeline's thumbnails amount",
        "set_input_oneday_timeline_thumbnail_num_help": "If you want the thumbnail density in Daily timelines to be higher, you can increase this value.",
        "set_text_video_not_index":"There are {nocred_count} videos waiting to be indexed. Expected time: <{timeCostStr}>. (There are {count} files on disk.)",
        "set_text_no_video_need_index":"No new videos need indexing at the moment.  (There are {count} files on disk.)",
        "set_text_one_video_to_index":"1 video is being recorded, no new videos need indexing at the moment.  (There are {count} files on disk.)",
        "set_text_some_video_will_be_index":"There are {nocred_count} videos that will be indexed automatically. (There are {count} files on disk.)",
        "set_btn_update_db_manual": "✦ Manually update database",
        "set_text_updating_db": "Updating database, please do not operate or refresh the page. Estimated time required: {estimate_time_str}",
        "set_text_db_updated_successful": "Database updated successfully! Time: {timeCostStr}",
        "set_btn_got_it": "Got it!",
        "set_md_gui": "#### Interface\n",
        "set_md_auto_maintain": "#### Automatic maintenance",
        "set_input_video_hold_days":"Video file retention days",
        "set_input_max_num_search_page": "In global search, maximum number of results per page",
        "set_update_latest": "Already up to date.",
        "set_update_checking": "Checking for updates...",
        "set_update_new": "\n💫 A new version {tool_version} has been detected. Update by opening `install_update.bat` or tray menu.",
        "set_update_changelog": "\n [What's new](https://github.com/yuka-friends/Windrecorder/blob/main/CHANGELOG.md)",
        "set_update_fail": "Failed to check for updates. {e}",
        "set_pwd_text": "webui access password (leave blank to disable)",
        "set_pwd_help": "If password input filled, you will be asked to provide a password when accessing webui. This setting will not encrypt your data, but only protects the entrance to webui to avoid access by unfamiliar users in the same LAN.",
        "set_pwd_forget_help": "Forgot your password? Delete the webui_access_password_md5 item in config_user.json to reset password.",
        "set_checkbox_enable_img_emb": "Enable image semantic retrieval",
        "set_text_enable_img_emb_help": "Image semantic retrieval is a method of image retrieval based on the semantic content of images through computer vision technology. It can retrieve queries from large-scale image databases based on the semantic description of the content of the image. Related images. Windrecorder uses uform-vl-multilingual-v2 to embed the index. When this option turned on, the app will embedding image from video in idle maintain, and then it can be searched. You can also embedding manually through the script under app directory 'extension/index_img_embedding_for_all_videofiles'.",
        "set_text_img_emb_not_suppport_cuda": "Your device seems not support CUDA, may have lower performance when using CPU to embedding images.",
        "set_input_img_emb_max_recall_count": "Maximum number of results recalled from each database in Image semantic search",
        "set_text_help_img_emb_max_recall_count": "A specified number of results will be recalled from each month database. Too high or too low may lead to a decrease in query accuracy. If the results are inaccurate, try adjusting this option.",
        "set_input_day_begin_minutes": "Daily - Separate time of day",
        "set_help_day_begin_minutes": "You can divide the records for a period of time after midnight into the same natural day, instead of dividing each day by zero.",
        "set_checkbox_synonyms_recommand": "Recommend synonyms when searching",
        "set_help_synonyms_recommand": "If the language is not supported, it will not be enabled. Check the supported languages under config_src\\synonyms.",
        "set_checkbox_reduce_same_content_at_different_time": "When the same content is shown at different time points in a video slice, only the first occurrence is recorded.",

        "qs_la_text_same_as_previous": "The interface language remains the same as before: English",
        "qs_un_set_your_username": "Set your username as a database identifier.",
        "qs_un_describe": "Press enter to use the current username: [{sys_username}], or type a custom username (up to 20 characters).",
        "qs_un_longer_than_expect": "Exceeded the length limit (20 half-width English characters / 10 full-width Chinese characters).",
        "qs_un_use_current_name": "Use the current username: {sys_username}",
        "qs_un_use_custom_name": "Use a custom username: {your_username}",
        "qs_olang_intro": "The system has the following languages installed. Select one as the main language for OCR detection:",
        "qs_olang_ocrlang_set_to": "The main language for OCR detection has been set to:",
        "qs_olang_error": "The input should be numeric and within the range of options.",
        "qs_olang_one_choice_default_set": "The system language is {os_support_lang}, which has been applied as the main language for OCR detection.\n(Not the language you want? Please check whether the input method/language pack of the selected language is installed on the system.\n(https: //learn.microsoft.com/en-us/uwp/api/windows.media.ocr)",
        "qs_ocr_title": "OCR Engine Test Results:\n",
        "qs_ocr_result_describe": "Accuracy: {accuracy}, Recognition Time: {timecost}, Time Required to Index a 15-minute Video: {timecost_15}",
        "qs_ocr_describe": "> It is recommended to use the built-in Windows.Media.Ocr.Cli, which has faster speed and lower performance consumption.\n",
        "qs_ocr_describe_disable_clo": "> chineseocr_lite_onnx has been disabled due to compatibility issues. \n(Enabled by modifying 'enable_ocr_chineseocr_lite_onnx':true in user_config.json.)",
        "qs_ocr_tips_low_accuracy": "! Accuracy too low? Please check whether the input method/language pack for the selected language is installed on your system. \n(https://learn.microsoft.com/en-us/uwp/api/windows.media.ocr)\nIn addition, the test case may not be accurate, please refer to the actual situation.",
        "qs_ocr_cta": "Please select the OCR engine for extracting screen content:",
        "qs_ocr_option_recommand": "(Recommended & Default)",
        "qs_ocr_engine_chosen": "OCR Engine Used:",
        "qs_mo_describe_all": "Multiple displays have been detected. Choose recording mode: (Press enter to apply the current option directly)\n",
        "qs_mo_describe_single": "Single display ({width}x{height}) detected.\nIf you use multiple displays in the future, you can always adjust the multi-screen recording mode in the recording settings.\n",
        "qs_mo_option_all": "Record all displays",
        "qs_mo_option_single": "Only record one of the displays",
        "qs_mo_set_to": "The recording mode is set to:",
        "qs_mo_choose_one_display": "Please select a single display you want to record:",
        "qs_mo_record_single": "Record display only:",
        "qs_mo_cta": "The display's resolution will be automatically recognized each time the screen is recorded, no additional settings are required.",
        "qs_et_describe": "Windrecorder also provides some extension functions, which you can later install/use in the extension directory.",
        "qs_end_describe": "Congratulations! You have completed all initial settings. Don't worry, you can adjust the settings anytime in the app! \n\nNow, you can open [start_app.bat] in the directory to start using it. \n",
        "qs_end_slogan": "> Capture and preserve the fleeting moments of the wind, as seen through your eyes.",
        "qs_end_feedback": "> Encountered a problem or have suggestions? Feel free to submit issues and PRs at https://github.com/yuka-friends/Windrecorder.",

        "tray_add_flag_mark_note_for_now": "🚩 Add mark for now",
        "tray_webui_start": "🦝 Start Search/Setting webui",
        "tray_webui_exit": "🦝 Stop Search/Settings webui service",
        "tray_webui_address": "🦝 Browser {address_port} to access webui",
        "tray_webui_address_network": "      LAN address: {address_port}",
        "tray_record_start": "▶️ Start Recording",
        "tray_record_stop": "⏸️ Pause Recording",
        "tray_update_cta": "🚀 Update to new version: {version}",
        "tray_version_info": "🚀 Version {version}",
        "tray_updatelog": "🚀 See what's new",
        "tray_exit": "❌ Exit",
        "tray_notify_title": "Windrecorder is recording",
        "tray_notify_title_record_pause": "Windrecorder has paused recording",
        "tray_notify_text": "Use the tray right-click menu to Pause Recording and Rewind Memories",
        "tray_notify_text_start_without_record": "Use the tray right-click menu to Start Recording and Rewind Memories",
        "tray_tip_record": "Windrecorder - Recording",
        "tray_tip_record_pause": "Windrecorder - Recording Pause",
        "tray_text_already_run": "Another Windrecorder is running in system tray.",

        "flag_text_mark_added": "Time mark added.",
        "flag_input_note": "Note:",
        "flag_btn_remove_mark": "Remove mark",
        "flag_btn_add_note": "Add note"
    },
  
    "sc": {  
        "main_title": "#### 🦝 捕风记录仪",
        
        "tab_name_oneday": "一天之时",
        "tab_name_search": "全局搜索",
        "tab_name_stat": "记忆摘要",
        "tab_name_recording": "录制与视频存储",
        "tab_name_setting": "设置",

        "text_search_keyword": "关键词搜索",
        "text_search_daterange": "日期范围",
        "text_search_not_found": "没有找到 \"{search_content}\"。",
        "utils_toast_setting_saved": "已应用更改。",
        "footer_info": "最早的数据时间：**{first_record_time_str}**，最新的数据时间： **{latest_record_time_str}**， 数据库记录了行数： **{latest_db_records}**，视频文件占用空间： **{videos_file_size} GB** ({videos_files_count} 个视频文件)",
        "footer_info_help": "统计更新可能存在最多两天的延迟。",

        "text_welcome_to_windrecorder":"欢迎使用 Windrecorder！",
        "text_updating_month_stat": "更新本月统计中……",
        "text_updating_yearly_stat": "更新本年统计中……",
        
        "oneday_title": "### 🖼️ 一天之时",
        "oneday_btn_yesterday": "← 前一天",
        "oneday_btn_tomorrow": "后一天 →",
        "oneday_btn_today": "今天",
        "oneday_toggle_search": "搜索",
        "oneday_toggle_search_help": "通过空格分开多个关键词进行检索。不输入任何内容直接回车搜索，可列出当日所有数据。",
        "oneday_search_md_none": "<p align='center' style='line-height:2.3;'> ⚠ 没有找到结果 </p>",
        "oneday_search_md_result": "<p align='center' style='line-height:2.3;'> → 共 {result_num} 条结果：</p>",
        "oneday_text_generate_timeline_thumbnail": "生成当日时间轴缩略图中，请稍后……",
        "oneday_md_no_enough_thunmbnail_for_timeline": "<p align='center' style='color:rgba(0,0,0,.3)'> 当日缩略图数量不足以生成时间轴。 </p>",
        "oneday_md_rewinding_video_name": "`正在回溯 {day_video_file_name}`",
        "oneday_text_not_found_vid_but_has_data": "磁盘上没有找到这个时间的视频文件，不过有文本数据可被检索。",
        "oneday_text_data_indexing_wait_and_refresh": "有数据正在被索引中，请稍等几分钟后刷新查看。",
        "oneday_text_no_found_record_and_vid_on_disk": "磁盘上没有找到这个时间的视频文件和索引记录。",
        "oneday_text_has_vid_but_not_index": "数据库中没有这一天的数据索引。不过，磁盘上有这一天的视频还未索引，请前往「设置」进行索引、或等待自动索引。→",
        "oneday_text_vid_and_data_not_found": "没有找到这一天的数据索引和视频文件。",
        "oneday_text_flag_mark_help": "当想为正在经历的重要会议、突发情况、某场直播、游戏与观影高光时刻……等添加标记、以方便未来回顾时，可以通过托盘菜单为当下添加一个标记 —— 在时间长河中也可以刻舟求剑。",
        "oneday_text_help_locate_manually": "受限于 streamlit 能力，目前只能手动定位回到该时间点。",
        "oneday_toggle_flag_mark": "查看时间标记清单",
        "oneday_btn_add_flag_mark_from_select_time": "为当前定位的时间添加标记",
        "oneday_btn_flag_mark_save_df": "保存修改",
        "oneday_wt_text": "屏幕时间",
        "oneday_wt_help": "统计可能存在较大偏差，仅供参考。",
        "oneday_ls_title_wintitle": "⏱️ 活动统计",
        "oneday_ls_title_flag_note": "🚩 所有旗标",
        "oneday_ls_text_no_wintitle_stat": "<p align='left' style='color:rgba(0,0,0,.3)'> 没有当日页面浏览数据 </p>",
        "oneday_ls_text_no_wintitle_stat_momnth": "<p align='left' style='color:rgba(0,0,0,.3)'> 没有当月页面浏览数据 </p>",
        "oneday_ls_text_disable_leftside": "<p align='center' style='color:rgba(0,0,0,.3)'> 工具栏已关闭，可前往设置页开启。 </p>",

        "gs_md_search_title": "### 🔎 搜索",
        "gs_input_exclude": "排除",
        "gs_input_search_help": "可使用空格分隔多个关键词；窗口标题名也可以作为关键词。",
        "gs_input_exclude_help": "排除哪些关键词的内容，留空为不排除。可使用空格分隔多个关键词。",
        "gs_text_pls_choose_full_date_range": "请选择完整的时间范围",
        "gs_input_result_page": "结果页数",
        "gs_md_search_result_stat": "搜索到 {all_result_counts} 条、共 {max_page_count} 页关于 \"{search_content}\" 的结果。",
        "gs_md_synonyms_recommend": "试试搜索：{synonyms_recommend}",
        "gs_md_search_result_below": "`执行耗时：{timecost}s`",
        "gs_text_intro": "这里是全局搜索页，可以搜索到迄今记录的所有内容。输入关键词后回车即可搜索。",
        "gs_slider_to_rewind_result": "拖动回溯搜索结果",
        "gs_text_randomwalk": "随便走走",
        "gs_text_video_file_not_on_disk": "磁盘上没有找到 **{df_videofile_name}**",
        "gs_option_ocr_text_search": "文本 OCR 搜索",
        "gs_option_img_emb_search": "图像语义搜索",
        "gs_option_similar_img_search": "以图搜图",
        "gs_input_img_emb_search": "使用自然语言描述图像",
        "gs_text_img_emb_help": "用自然语言描述画面内容，描述越精确、画面结果将越接近。此处支持中、英、日、韩等多达 21 种语言输入（详细 uform 文档）。视频需要被嵌入索引后才能搜索得到，详见设置页设置项说明。",
        "gs_text_searching": "搜索中，请稍后……",
        "gs_text_loading_embed_model": "加载嵌入模型中，请稍后……",
        "gs_text_upload_img": "选择图片",
        "gs_text_upload_img_help": "嵌入模型倾向根据图像内容语义进行搜索，而非匹配图像本身特征。",
        "gs_text_not_install_img_emb": "未启用或未安装图像语义检索模块，请前往设置页启用。若设置中无相关选项，请先安装图像语义模块。安装脚本位于 Windrecorder 目录下：extension\\install_img_embedding_module\\install_img_embedding_module.bat",

        "stat_md_month_title": "### 🌖 当月数据统计",
        "stat_md_year_title": "### 🎏 {stat_year_title} 记录",
        "stat_md_memory_title": "### 🧩 记忆摘要",
        "stat_btn_generate_update_word_cloud": "生成/更新本月词云",
        "stat_text_generating_word_cloud": "生成中，大概需要 30s……",
        "stat_text_no_month_word_cloud_pic": "当月未有词云图片。",
        "stat_btn_generate_lightbox": "生成/更新本月的光箱",
        "stat_text_generating_lightbox": "生成中，大概需要 5s……",
        "stat_text_no_month_lightbox": "当月未有光箱图片。",
        "stat_text_counting": "统计中……",
        "stat_text_wintitle_keyword_filter": "关键词过滤",
        "stat_text_wintitle_filter_help": "通过空格分开多个关键词进行检索，关键词搜索时会忽略大小写。留空列出当月所有数据。",

        "rs_text_need_to_restart_after_save_setting": "本页的设置在保存后，需重启 「捕风记录仪」 才能生效。",
        "rs_md_title": "### 📼 录制与视频存储",
        "rs_md_record_setting_title": "#### 录制选项",
        "rs_checkbox_start_record_when_startup": "开机后自动启动应用",
        "rs_checkbox_start_record_when_startup_help": "此项勾选后会为「start_app.bat」创建快捷方式，并放到系统开机自启动的目录下。此行为可能会被部分安全软件误判为病毒行为，导致「start_webui.bat」被移除，如有拦截，请将其移出隔离区并标记为可信任软件。或手动为「start_app.bat」创建快捷方式、并放到系统的开机启动目录下。",
        "rs_checkbox_is_start_recording_on_start_app": "启动应用后自动开始录制",
        "rs_input_stop_recording_when_screen_freeze": "当画面几分钟没有变化时，暂停录制下个视频切片（0为永不暂停）",
        "rs_text_skip_recording_by_wintitle": "当前台应用标题/ OCR 包含以下词语之一时，跳过录制片段，且不索引、展示：",
        "rs_tag_input_tip": "回车添加",
        "rs_text_ocr_manual_update": "不自动索引，我会在需要时手动更新",
        "rs_text_ocr_auto_update": "视频切片录制完毕时自动索引（推荐）",
        "rs_selectbox_ocr_strategy": "OCR 索引策略",
        "rs_input_vid_store_time_help": "0 为永不删除。",
        "rs_input_vid_compress_time": "原视频保留几天后进行压缩",
        "rs_input_vid_compress_time_help": "0 为永不压缩。",
        "rs_selectbox_compress_ratio": "压缩到原先画面尺寸的",
        "rs_selectbox_compress_ratio_help": "0.75 倍的边缩放约可压缩到原视频体积的 1/4，0.5 倍为 1/8，0.25 倍为 1/16。根据视频具体内容不同，压缩比可能有所差异。",
        "rs_checkbox_enable_half_res_while_hidpi": "对于「高 DPI /高分辨率屏幕」，在录制时缩放至四分之一的分辨率",
        "rs_text_compress_encoder": "编码方式",
        "rs_text_compress_accelerator": "编码加速器",
        "rs_text_compress_CRF": "编码质量 CRF",
        "rs_text_compress_CRF_help": "CRF 是 Constant Rate Factor 的缩写，用于设置视频编码的质量和比特率控制。Windrecorder 为了较高的压缩率，默认设定在 39。在 ffmpeg 中，CRF 的取值范围取决于所使用的编码器。对于 x264 编码器，CRF 的取值范围是 0 到 51，其中 0 表示无损，23 是默认值，51 表示最差的质量。较低的值意味着更高的质量，但会导致更大的文件大小。通常情况下，x264 编码器的合理取值范围是 18 到 28。对于 x265 编码器，默认的 CRF 值是 28。而对于 libvpx 编码器，CRF 的取值范围是 0 到 63。总的来说，CRF 值越低，视频质量越高，但文件大小也会相应增加。",
        "rs_text_estimate_hint": "每15分钟录制视频大小估计：{min}Mb ~ {max}Mb，视具体录制内容与显示器数量决定。",
        "rs_btn_encode_benchmark": "测试支持的编码方式 ♘",
        "rs_text_encode_benchmark_loading": "测试中，大概需要 1 分钟……",
        "rs_text_support": "支持",
        "rs_text_compress_ratio": "压缩率❓",
        "rs_text_compress_ratio_help": "压缩率 = 压缩后的视频文件体积 / 原视频文件体积。此处测试文件时长较短，该项指标呈现可能存在较大偏差。随着视频时间增长，压缩率相对会更高。你可以替换 __assets__\\test_video_compress.mp4 文件来进行测试。",
        "rs_text_compress_time": "压缩耗时（s）",
        "rs_text_record_strategy_option_all": "录制所有显示器（共 {num} 个）",
        "rs_text_record_strategy_option_single": "仅录制一个显示器",
        "rs_text_record_range": "画面录制范围",
        "rs_text_record_single_display_select": "仅录制显示器：",
        "rs_text_show_encode_option": "显示高级编码选项",
        "rs_text_record_encoder": "录制编码器",
        "rs_text_record_help": "选择 h265/AV1 可以在同等体积下获得更好的画质，但在录制与回放时可能性能较差。（若支持，将会自动启用硬件加速）",
        "rs_text_record_bitrate": "录制比特率（kbps）",
        "rs_text_bitrate_help": "视频比特率是指视频数据的传输速度或处理速度，会影响视频的画质和文件的大小。具体来说，比特率越高，视频的画质越好，但相应的文件大小也会越大。相反，如果比特率较低，则即使在同样的分辨率下，视频的画质可能就会出现模糊或者失真。为了将画面保持在较小体积，默认为 200kbps。",
        
        "set_md_title": "### ⚙️ 设置",
        "set_md_index_db": "#### 数据库索引\n",
        "set_checkbox_shutdown_after_updated": "更新完毕后关闭计算机",
        "set_selectbox_local_ocr_engine": "本地 OCR 引擎",
        "set_selectbox_ocr_lang": "主要的 OCR 语言",
        "set_selectbox_local_ocr_engine_help": "推荐使用 Windows 自带的 Windows.Media.Ocr.Cli 进行 OCR，速度更快、性能占用更低。",
        "set_md_ocr_ignore_area": "**OCR 时忽略屏幕四边的区域范围**",
        "set_md_ocr_ignore_area_help": "填入数字为百分比，比如'6' == 6%。此选项可以在 OCR 时忽略屏幕四边的元素，如浏览器的标签栏、Windows 的开始菜单、网页内的花边广告信息等。",
        "set_toggle_use_screenshot_as_refer": "用当前屏幕截图参照",
        "set_text_choose_displays": "选择显示器",
        "set_text_top_padding":"上边框",
        "set_text_bottom_padding":"下边框",
        "set_text_left_padding":"左边框",
        "set_text_right_padding":"右边框",
        "set_checkbox_enable_3_columns_in_oneday": "「一天之时」使用三栏居中布局",
        "set_help_enable_3_columns_in_oneday": "三栏布局适合较大的 webui 显示设备，可以提供更多信息、让回溯画面居中。默认双栏布局适合较小的 webui 显示设备。",
        "set_checkbox_use_similar_zh_char_to_search": "使用中文形近字进行搜索",
        "set_checkbox_use_similar_zh_char_to_search_help": "OCR 可能会误认相似字，开启此项会同时搜索和关键词相近的字形，以提高结果的命中率。在某些情况下，会降低搜索性能、让结果噪音增加。",
        "set_input_wordcloud_filter": "在词云生成中过滤以下词语：",
        "set_input_wordcloud_filter_help": "有一些 UI 的词语会常驻显示，从而在数据中出现频次更高，这里可以将它们排除在词云的统计范围之外。",
        "set_input_oneday_timeline_thumbnail_num": "「一天之时」时间轴的横向缩略图数量",
        "set_input_oneday_timeline_thumbnail_num_help": "如果希望「一天之时」时间轴缩略图密度更高，可以提高该值。",
        "set_text_video_not_index":"有 {nocred_count} 个视频等待索引，预计用时 <{timeCostStr}。 (磁盘上有 {count} 个文件。)",
        "set_text_no_video_need_index":"暂时没有新视频需要索引啦。  (磁盘上有 {count} 个文件。)",
        "set_text_one_video_to_index":"有 1 个视频正在录制中，暂时没有新视频需要索引啦。  (磁盘上有 {count} 个文件。)",
        "set_text_some_video_will_be_index":"有 {nocred_count} 个视频将会被自动索引。 (磁盘上有 {count} 个文件。)",
        "set_btn_update_db_manual": "✦ 手动更新数据库",
        "set_text_updating_db": "更新数据库中，请不要操作或刷新页面。预估所需时间：{estimate_time_str}",
        "set_text_db_updated_successful": "数据库更新成功！用时： {timeCostStr}",
        "set_btn_got_it": "我知道了",
        "set_md_gui": "#### 界面\n",
        "set_md_auto_maintain": "#### 自动化维护",
        "set_input_video_hold_days":"视频文件保留天数",
        "set_input_max_num_search_page": "全局搜索中，每页显示结果的最大数量",
        "set_update_latest": "当前已是最新版本。",
        "set_update_checking": "检查更新中……",
        "set_update_new": "\n💫 检查到有新版本 {tool_version}，请打开目录下的`install_update.bat` 或通过托盘菜单来更新。",
        "set_update_changelog": "\n [更新日志](https://github.com/yuka-friends/Windrecorder/blob/main/CHANGELOG.md)",
        "set_update_fail": "无法检查更新。{e}",
        "set_pwd_text": "webui 访问密码（留空则不启用）",
        "set_pwd_help": "启用此项设置后，会在访问 webui 时要求提供密码。此项设置不会加密你的数据，仅保护 webui 的使用入口，以避免同局域网内陌生用户访问。",
        "set_pwd_forget_help": "忘记密码？请将 config_user.json 中的 webui_access_password_md5 项删除重置。",
        "set_checkbox_enable_img_emb": "启用图像语义检索",
        "set_text_enable_img_emb_help": "图像语义检索是一种通过计算机视觉技术、基于图像的语义内容进行图像检索的方法。它可以做到根据对图像的内容语义描述，从大规模的图像数据库中检索出查询出相关的图像。Windrecorder 使用 uform-vl-multilingual-v2 来嵌入索引。开启该选项后，程序将在空闲时间对视频建立图像嵌入索引，之后便能对此进行全局搜索。你也可以通过程序目录下的 extension/index_img_embedding_for_all_videofiles 脚本手动索引已有的视频文件。",
        "set_text_img_emb_not_suppport_cuda": "你的设备似乎不支持 CUDA，在使用 CPU 对图像语义索引时可能性能较低。",
        "set_input_img_emb_max_recall_count": "自然语义搜索中，从每个数据库召回的结果数",
        "set_text_help_img_emb_max_recall_count": "自然语义搜索时，会分别从每月数据库中召回指定数量结果，过高或过低的数量可能导致查询准确率降低。如果结果不准确，请尝试调整该项。",
        "set_input_day_begin_minutes": "「一天之时」分隔每日的时间点",
        "set_help_day_begin_minutes": "可以把凌晨后的一段时间记录划分到同个自然天中，而非以零点来划分每天。",
        "set_checkbox_synonyms_recommand": "搜索时推荐近义词",
        "set_help_synonyms_recommand": "若语言不支持将不启用，在 config_src\\synonyms 下查看已支持语言。",
        "set_checkbox_reduce_same_content_at_different_time": "当视频片段内有相同内容显示在不同时间点，只记录第一次出现时间点。",

        "qs_la_text_same_as_previous": "界面语言保持与先前一致的：简体中文",
        "qs_un_set_your_username": "设定你的用户名，以作为数据库标识。",
        "qs_un_describe": "回车直接使用当前用户名作为用户标识：「{sys_username}」，也可以输入自定义用户名（20个字符以内）。",
        "qs_un_longer_than_expect": "超出限定长度（20个半角英文字符/10个全角中文字符）",
        "qs_un_use_current_name": "使用当前用户名：{sys_username}",
        "qs_un_use_custom_name": "使用自定义用户名：{your_username}",
        "qs_olang_intro": "系统已安装以下语言，选择一项作为 OCR 检测的主要语言：",
        "qs_olang_ocrlang_set_to": "OCR 检测的主要语言已设定为：",
        "qs_olang_error": "输入项应当为数字且在选项范围内。",
        "qs_olang_one_choice_default_set": "系统语言为 {os_support_lang}，已应用为 OCR 检测的主要语言。\n（不是所需语言？请检查系统是否安装了选定语言的输入法/语言包。\n（https://learn.microsoft.com/en-us/uwp/api/windows.media.ocr）",
        "qs_ocr_title": "OCR 引擎测试情况：\n",
        "qs_ocr_result_describe": "准确率：{accuracy}，识别时间：{timecost} ，索引15分钟视频约用时：{timecost_15}",
        "qs_ocr_describe": "> 推荐使用系统自带的 Windows.Media.Ocr.Cli，具有更快的速度、更低的性能消耗。\n",
        "qs_ocr_describe_disable_clo": "> chineseocr_lite_onnx 由于兼容性问题已禁用。\n（通过修改 user_config.json中'enable_ocr_chineseocr_lite_onnx':true 启用。）",
        "qs_ocr_tips_low_accuracy": "！准确率过低？请检查系统是否安装了选定语言的输入法/语言包。\n（https://learn.microsoft.com/en-us/uwp/api/windows.media.ocr）",
        "qs_ocr_cta": "请选择提取屏幕内容时的 OCR 引擎：",
        "qs_ocr_option_recommand": "（推荐 & 默认）",
        "qs_ocr_engine_chosen": "OCR 引擎使用：",
        "qs_mo_describe_all": "检测到了多个显示器，你希望的录制模式为：（回车直接应用当前选项）\n",
        "qs_mo_describe_single": "检测到了单个显示器（{width}x{height}）。\n如果未来使用多个显示器，可以随时在录制设置中调整多屏幕录制模式。\n",
        "qs_mo_option_all": "录制所有显示器",
        "qs_mo_option_single": "仅录制其中一个显示器",
        "qs_mo_set_to": "录制模式设置为：",
        "qs_mo_choose_one_display": "请选择想录制的单个显示器：",
        "qs_mo_record_single": "仅录制显示器：",
        "qs_mo_cta": "显示器的分辨率将在每次录屏时自动识别，无需额外设定。",
        "qs_et_describe": "捕风记录仪 还提供了一些扩展功能，你可以稍后在 extension 目录下安装/使用。",
        "qs_end_describe": "恭喜！你已完成所有初始设定。别担心，你可以随时在应用内调整设置！\n\n现在，你可以打开目录下的 【start_app.bat】 来开始使用啦。\n",
        "qs_end_slogan": "> 一起捕捉贮藏风一般掠过的、你的目之所见。",
        "qs_end_feedback": "> 遇到问题、想反馈建议？欢迎在 https://github.com/yuka-friends/Windrecorder 提交 issue 与 PR。",
        
        "tray_add_flag_mark_note_for_now": "🚩 为现在时间添加标记",
        "tray_webui_start": "🦝 启动搜索/设置界面",
        "tray_webui_exit": "🦝 关闭搜索/设置界面",
        "tray_webui_address": "🦝 浏览器访问 {address_port} 进入页面",
        "tray_webui_address_network": "      局域网访问：{address_port}",
        "tray_record_start": "▶️ 开始记录",
        "tray_record_stop": "⏸️ 暂停记录",
        "tray_update_cta": "🚀 更新到新版本：{version}",
        "tray_version_info": "🚀 当前已是最新版 {version}",
        "tray_updatelog": "🚀 查看更新日志",
        "tray_exit": "❌ 退出",
        "tray_notify_title": "捕风记录仪 正在记录",
        "tray_notify_title_record_pause": "捕风记录仪 已暂停录制",
        "tray_notify_text": "通过托盘右键菜单来「暂停记录」与「搜索回忆」",
        "tray_notify_text_start_without_record": "通过托盘右键菜单来「开始记录」与「搜索回忆」",
        "tray_tip_record": "捕风记录仪 - 正在记录",
        "tray_tip_record_pause": "捕风记录仪 - 暂停记录",
        "tray_text_already_run": "「捕风记录仪」已在系统托盘中运行。",

        "flag_text_mark_added": "已添加此时的标记。",
        "flag_input_note": "备注：",
        "flag_btn_remove_mark": "移除标记",
        "flag_btn_add_note": "添加备注"
    },

    "ja": {  
        "main_title": "#### 🦝 Windrecorder",
        
        "tab_name_oneday": "一日",
        "tab_name_search": "グローバルキーワード検索",
        "tab_name_stat": "メモリサマリー",
        "tab_name_recording": "録画とビデオストレージ",
        "tab_name_setting": "設定",

        "text_search_keyword": "キーワード検索",
        "text_search_daterange": "日付範囲",
        "text_search_not_found": "\"{search_content}\" が見つかりませんでした。",
        "utils_toast_setting_saved": "変更が適用されました。",
        "footer_info": "最も早いデータの時間：**{first_record_time_str}** , 最新のデータ時間： **{latest_record_time_str}** ,データベースのレコード数： **{latest_db_records}** ,ビデオファイルの使用スペース： **{videos_file_size} GB** ({videos_files_count} 個のビデオファイル)",
        "footer_info_help": "統計情報の更新には最大 2 日の遅れが生じる可能性があります。",

        "text_welcome_to_windrecorder":"Windrecorderへようこそ！",
        "text_updating_month_stat": "今月の統計を更新しています...",
        "text_updating_yearly_stat": "今年の統計を更新しています...",
        
        "oneday_title": "### 🖼️ 一日",
        "oneday_btn_yesterday": "← 前の日",
        "oneday_btn_tomorrow": "次の日 →",
        "oneday_btn_today": "今日",
        "oneday_toggle_search": "検索",
        "oneday_toggle_search_help": "スペースで区切られた複数のキーワードの検索ができます。何も入力しないで Enter キーを押すと、当日のすべてのデータが表示されます。",
        "oneday_search_md_none": "<p align='center' style='line-height:2.3;'> ⚠ 結果が見つかりません </p>",
        "oneday_search_md_result": "<p align='center' style='line-height:2.3;'> → 合計 {result_num} 件の結果：</p>",
        "oneday_text_generate_timeline_thumbnail": "当日のタイムラインサムネイルを生成中です。しばらくお待ちください...",
        "oneday_md_no_enough_thunmbnail_for_timeline": "<p align='center' style='color:rgba(0,0,0,.3)'> その日のサムネイル数がタイムラインを生成するのに十分ではありません。 </p>",
        "oneday_md_rewinding_video_name": "`{day_video_file_name} を巻き戻しています`",
        "oneday_text_not_found_vid_but_has_data": "この時間のビデオファイルがディスク上に見つかりませんでしたが、検索可能なテキストデータがあります。",
        "oneday_text_data_indexing_wait_and_refresh": "データがインデックス中です。数分待ってから更新してください。",
        "oneday_text_no_found_record_and_vid_on_disk": "この時間のビデオファイルおよびインデックスレコードがディスク上に見つかりませんでした。",
        "oneday_text_has_vid_but_not_index": "この日のデータインデックスがデータベースにありません。しかし、インデックスされていないその日のビデオがディスクにあります。設定ページに移動してインデックスを実行してください。→",
        "oneday_text_vid_and_data_not_found": "データインデックスとビデオファイルがその日見つかりませんでした。",
        "oneday_text_flag_mark_help": "重要な会議、緊急事態、特定の生放送、ゲームや映画の視聴ハイライトの瞬間などにマークを追加して、将来の見直しを容易にしたい場合、トレイメニューから現在の瞬間にマークを追加できます。時の川、船を彫って剣を求めることもできます。",
        "oneday_text_help_locate_manually": "ストリームライト機能によって制限されているため、現在、この時点まで遡って手動で検索することしかできません。",
        "oneday_toggle_flag_mark": "タイムマークリスト",
        "oneday_btn_add_flag_mark_from_select_time": "現在位置している時間にマークを追加します",
        "oneday_btn_flag_mark_save_df": "変更を保存",
        "oneday_wt_text": "スクリーンタイム",
        "oneday_wt_help": "統計には大きな偏差がある可能性があり、参照のみを目的としています。",
        "oneday_ls_title_wintitle": "⏱️ アクティビティ統計",
        "oneday_ls_title_flag_note": "🚩 すべてのフラグ",
        "oneday_ls_text_no_wintitle_stat": "<p align='left' style='color:rgba(0,0,0,.3)'> その日のページビュー データはありません </p>",
        "oneday_ls_text_no_wintitle_stat_momnth": "<p align='left' style='color:rgba(0,0,0,.3)'> その月のページビュー データはありません </p>",
        "oneday_ls_text_disable_leftside": "<p align='center' style='color:rgba(0,0,0,.3)'> ツールバーは閉じています。ツールバーを開くには、設定ページに移動できます。</p> ",

        "gs_md_search_title": "### 🔎 検索",
        "gs_input_exclude": "除外",
        "gs_input_search_help": "スペースを使用して複数のキーワードを分離できます。ウィンドウタイトル名もキーワードとして使用できます。",
        "gs_input_exclude_help": "どのキーワードのコンテンツを除外するか。空白のままにすると除外されません。複数のキーワードをスペースで区切って指定できます。",
        "gs_text_pls_choose_full_date_range": "完全な日付範囲を選択してください",
        "gs_input_result_page": "結果ページ数",
        "gs_md_search_result_stat": "{all_result_counts} 件の \"{search_content}\" の結果が見つかりました。最大 {max_page_count} ページ。",
        "gs_md_synonyms_recommend": "検索してみてください: {synonyms_recommend}",
        "gs_md_search_result_below": "`実行時間：{timecost}s`",
        "gs_text_intro": "これはグローバル検索ページです。これまでに記録されたすべてのコンテンツを検索できます。キーワードを入力して Enter キーを押すと検索が開始されます。",
        "gs_slider_to_rewind_result": "検索結果を巻き戻す",
        "gs_text_randomwalk": "散歩する",
        "gs_text_video_file_not_on_disk": "**{df_videofile_name}** がディスク上に見つかりません",
        "gs_option_ocr_text_search": "テキスト OCR 検索",
        "gs_option_img_emb_search": "画像セマンティック検索",
        "gs_option_similar_img_search": "画像を画像で検索",
        "gs_input_img_emb_search": "自然言語を使用して画像を説明します",
        "gs_text_img_emb_help": "画面の内容を自然言語で説明します。説明が正確であればあるほど、結果はより正確になります。ここでは、中国語、英語、日本語、韓国語など、最大 21 の言語がサポートされています(uform ドキュメントの詳細)。ビデオはインデックス作成後に埋め込む必要があります。検索のみで、詳細については設定ページの設定項目の説明を参照してください。",
        "gs_text_searching": "検索中です、お待ちください...",
        "gs_text_loading_embed_model": "テキスト埋め込みモデルを読み込み中...",
        "gs_text_upload_img": "画像を選択",
        "gs_text_upload_img_help": "埋め込みモデルは、画像自体の特性と一致させるのではなく、画像コンテンツのセマンティクスに基づいて検索する傾向があります。",
        "gs_text_not_install_img_emb": "イメージ セマンティック取得モジュールが有効になっていない、またはインストールされていません。設定ページに移動して有効にしてください。設定に関連するオプションがない場合は、最初にイメージ セマンティック モジュールをインストールしてください。インストール スクリプトは次の場所にあります。 Windrecorder ディレクトリ: extension\\install_img_embedding_module\\install_img_embedding_module.bat",
        
        "stat_md_month_title": "### 🌖 今月のデータ統計",
        "stat_md_year_title": "### 🎏 {stat_year_title} の記録",
        "stat_md_memory_title": "### 🧩 メモリの要約",
        "stat_btn_generate_update_word_cloud": "今月のワードクラウドを生成/更新",
        "stat_text_generating_word_cloud": "生成中です。約 30 秒かかります...",
        "stat_text_no_month_word_cloud_pic": "今月はワードクラウド画像がありません。",
        "stat_btn_generate_lightbox": "今月のライトボックスを生成/更新",
        "stat_text_generating_lightbox": "生成中です。約 5秒かかります...",
        "stat_text_no_month_lightbox": "今月はライトボックス画像がありません。",
        "stat_text_counting": "統計...",
        "stat_text_wintitle_keyword_filter": "キーワード フィルター",
        "stat_text_wintitle_filter_help": "キーワードを検索する場合、複数のキーワードをスペースで区切って検索します。 当月のすべてのデータをリストするには、空白のままにします。",

        "rs_text_need_to_restart_after_save_setting": "このページの設定を保存した後、Windrecorder を再起動する必要があります。",
        "rs_md_title": "### 📼 録画とビデオストレージ",
        "rs_md_record_setting_title": "#### 録画オプション",
        "rs_checkbox_start_record_when_startup": "起動時に自動的にAppを開始する",
        "rs_checkbox_start_record_when_startup_help": "このオプションにチェックを入れると、start_app.bat のショートカットが作成されて、システムのスタートアップディレクトリに配置されます。このオプションにより、一部のセキュリティソフトウェアが start_webui.bat をウイルスのように誤検出する可能性がありますが、隔離エリアから取り除いて信頼できるソフトウェアとしてマークすることができます。また、手動で start_app.bat のショートカットを作成し、システムのスタートアップディレクトリに配置することもできます。",
        "rs_checkbox_is_start_recording_on_start_app": "アプリケーションの起動後に自動的に録画を開始します",
        "rs_input_stop_recording_when_screen_freeze": "画面が数分間変化しないときは、次のビデオスライスの録画を一時停止する（0 は永続停止しない）",
        "rs_text_skip_recording_by_wintitle": "フロントエンド アプリケーションのタイトル/OCR に次の単語のいずれかが含まれている場合、記録クリップはスキップされ、インデックス付けも表示もされません。",
        "rs_tag_input_tip": "追加",
        "rs_text_ocr_manual_update": "手動更新のみで、自動更新しない",
        "rs_text_ocr_auto_update": "ビデオスライスの録画が完了すると自動的にインデックス化（おすすめ）",
        "rs_selectbox_ocr_strategy": "OCR インデックス戦略",
        "rs_input_vid_store_time_help": "0 は永久に削除されません。",
        "rs_input_vid_compress_time": "元ビデオを数日間保持してから圧縮",
        "rs_input_vid_compress_time_help": "0 は圧縮されません。",
        "rs_selectbox_compress_ratio": "元の画面サイズの",
        "rs_selectbox_compress_ratio_help": "0.75 倍の縮尺で元のビデオ容量の 1/4 まで圧縮できます。0.5 倍は 1/8、0.25 倍は 1/16 まで。ビデオの内容によっては、圧縮比率が異なります。",
        "rs_checkbox_enable_half_res_while_hidpi": "「高 DPI/高解像度画面」の場合、録画時に 4 分の 1 の解像度にスケールします。",
        "rs_text_compress_encoder": "エンコード方式",
        "rs_text_compress_accelerator": "エンコード アクセラレータ",
        "rs_text_compress_CRF": "画面品質 CRF",
        "rs_text_compress_CRF_help": "CRF は Constant Rate Factor の略で、ビデオ エンコーディングの品質とビット レート制御を設定するために使用されます。Windrecorder は圧縮率を高めるためにデフォルトで 39 に設定されています。ffmpeg では、CRF の値の範囲は使用するエンコーダによって異なります。x264 エンコーダの場合、CRF 値の範囲は 0 ～ 51 です。0 はロスレスを意味し、23 はデフォルト値、51 は最悪の品質を意味します。値が低いほど高品質を意味しますが、結果はファイル サイズが大きくなります。通常、x264 エンコーダの適切な値の範囲は 18 ～ 28 です。x265 エンコーダの場合、デフォルトの CRF 値は 28 です。libvpx エンコーダの場合、CRF 値の範囲は 0 ～ 63 です。一般に、CRF 値が小さいほど、 、ビデオ品質は高くなりますが、それに応じてファイル サイズも大きくなります。",
        "rs_text_estimate_hint": "15 分ごとに録画される推定ビデオ サイズ: {min}Mb ~ {max}Mb (特定の録画コンテンツとモニターの数によって異なります)。",
        "rs_btn_encode_benchmark": "サポートされているエンコード方式をテストする ♘",
        "rs_text_encode_benchmark_loading": "テスト中は約 1 分かかります...",
        "rs_text_support": "サポート",
        "rs_text_compress_ratio": "圧縮率 ❓",
        "rs_text_compress_ratio_help": "圧縮率 = 圧縮ビデオ ファイルの容量 / 元のビデオ ファイルの容量。ここでのテスト ファイルは短いため、このインジケーターの表示には大きな誤差が生じる可能性があります。ビデオ時間が増加するにつれて、圧縮率は比較的高い。テスト用に __assets__\\test_video_compress.mp4 ファイルを置き換えることができます。",
        "rs_text_compress_time": "圧縮時間 (秒)",
        "rs_text_record_strategy_option_all": "すべての表示を記録します (合計 {num})",
        "rs_text_record_strategy_option_single": "1 つのモニターのみを録画します",
        "rs_text_record_range": "画面録画範囲",
        "rs_text_record_single_display_select": "レコード表示のみ:",
        "rs_text_show_encode_option": "高度なエンコード オプションを表示",
        "rs_text_record_encoder": "録音エンコーダー",
        "rs_text_record_help": "同じボリュームでより良い画質を得るには h265/AV1 を選択してください。ただし、録音および再生時のパフォーマンスが低下する可能性があります。(サポートされている場合は、ハードウェア アクセラレーションが自動的に有効になります)",
        "rs_text_record_bitrate": "録音ビットレート(kbps)",
        "rs_text_bitrate_help": "ビデオのビットレートとは、ビデオ データの送信速度または処理速度を指し、ビデオの品質とファイル サイズに影響します。具体的には、ビットレートが高いほどビデオの品質は向上しますが、対応するファイルのサイズも異なります。逆に、ビットレートが低い場合は、同じ解像度でもビデオ品質がぼやけたり歪んだりする可能性があります。画像サイズを小さくするために、デフォルトは 200kbps です。",

        "set_md_title": "### ⚙️ 設定",
        "set_md_index_db": "#### データベースインデックス\n",
        "set_checkbox_shutdown_after_updated": "更新が完了したらコンピューターをシャットダウン",
        "set_selectbox_local_ocr_engine": "ローカルOCRエンジン",
        "set_selectbox_ocr_lang": "メインの OCR 言語",
        "set_selectbox_local_ocr_engine_help": "Windows に搭載されている Windows.Media.Ocr.Cli を使用することをお勧めします。処理速度が速く、性能の消費が低いです。",
        "set_md_ocr_ignore_area": "**OCR時に画面の四辺の領域を無視する**",
        "set_md_ocr_ignore_area_help": "数字はパーセンテージです。例えば、「6」は 6% です。このオプションにより、OCR 時に画面の四辺の要素が無視されます。これには、ブラウザのタブバー、Windows のスタートメニュー、Web ページ内のボーダー広告情報などがあります。",
        "set_toggle_use_screenshot_as_refer": "現在のスクリーンショットを参照として使用する",
        "set_text_choose_displays": "ディスプレイを選択",
        "set_text_top_padding":"上マージン",
        "set_text_bottom_padding":"下マージン",
        "set_text_left_padding":"左マージン",
        "set_text_right_padding":"右マージン",
        "set_checkbox_enable_3_columns_in_oneday": "「One Day」では 3 列の中央レイアウトが使用されます",
        "set_help_enable_3_columns_in_oneday": "3 列レイアウトは、大型の WebUI 表示デバイスに適しており、より多くの情報を提供し、トレースバック画面を中央に配置できます。デフォルトの 2 列レイアウトは、小型の WebUI 表示デバイスに適しています。",
        "set_checkbox_use_similar_zh_char_to_search": "中国語の類似文字を検索に使用する",
        "set_checkbox_use_similar_zh_char_to_search_help": "OCRが似た文字を誤認識することがあります。このオプションを有効にすると、キーワードに似た文字の形状も同時に検索され、結果の命中率が向上します。",
        "set_input_wordcloud_filter": "以下の単語をワードクラウド生成時にフィルタリングする：",
        "set_input_wordcloud_filter_help": "いくつかのUIの単語は常に表示されるため、データ中でより頻繁に現れます。ここでは、それらをワードクラウドの統計範囲外に除外することができます。",
        "set_input_oneday_timeline_thumbnail_num": "「一日のタイムライン」の横方向サムネイル数",
        "set_input_oneday_timeline_thumbnail_num_help": "「一日のタイムライン」のサムネイル密度を高めたい場合は、この値を増やすことができます。",
        "set_text_video_not_index":"{nocred_count} 個のビデオがインデックス作業待ちです。予想所要時間：<{timeCostStr}>。 （ディスク上には {count} 個のファイルがあります。）",
        "set_text_no_video_need_index":"新しいビデオは現在インデックスする必要がありません。 （ディスク上には {count} 個のファイルがあります。）",
        "set_text_one_video_to_index":"1 つのビデオが録画中であり、新しいビデオは現在インデックスする必要がありません。 （ディスク上には {count} 個のファイルがあります。）",
        "set_text_some_video_will_be_index":"{nocred_count} 個のビデオが自動的にインデックスされます。 （ディスク上には {count} 個のファイルがあります。）",
        "set_btn_update_db_manual": "✦ データベースを手動で更新する",
        "set_text_updating_db": "データベースを更新中です。操作やページのリフレッシュはしないでください。更新プロセスはバックグラウンドのコマンドラインインターフェースで確認できます。予想所要時間：{estimate_time_str}",
        "set_text_db_updated_successful": "データベースの更新が成功しました！所要時間：{timeCostStr}",
        "set_btn_got_it": "了解しました",
        "set_md_gui": "#### インタフェース\n",
        "set_md_auto_maintain": "#### 自動メンテナンス",
        "set_input_video_hold_days":"ビデオファイルの保持日数",
        "set_input_max_num_search_page": "グローバル検索で表示される各ページの最大結果数",
        "set_update_latest": "現在のバージョンは最新です。",
        "set_update_checking": "更新を確認中...",
        "set_update_new": "\n💫 新しいバージョン {tool_version} が見つかりました。アップデートするには、ディレクトリ内の `install_update.bat` を開いてください。",
        "set_update_changelog": "\n [変更ログ](https://github.com/yuka-friends/Windrecorder/blob/main/CHANGELOG.md)",
        "set_update_fail": "更新を確認できませんでした。{e}",
        "set_pwd_text": "webui アクセス パスワード (無効にする場合は空白のままにします)",
        "set_pwd_help": "この設定を有効にすると、webui にアクセスするときにパスワードの入力を求められます。この設定はデータを暗号化しませんが、同じ LAN 内の見慣れないユーザーによるアクセスを避けるために webui への入り口を保護するだけです。",
        "set_pwd_forget_help": "パスワードをお忘れですか? config_user.json の webui_access_password_md5 項目を削除してリセットしてください。",
        "set_checkbox_enable_img_emb": "画像のセマンティック検索を有効にする",
        "set_text_enable_img_emb_help": "画像意味検索は、コンピューター ビジョン テクノロジーによる画像の意味内容に基づく画像検索方法です。画像内容の意味記述に基づいて、大規模画像データベースからクエリを取得できます。関連画像Windrecorder は、uform-vl-multilingual-v2 を使用してインデックスを埋め込みます。このオプションをオンにすると、プログラムは空き時間にビデオの画像埋め込みインデックスを構築し、グローバルに検索できるようになります。プログラム ディレクトリを介して、extension/index_img_embedding_for_all_videofilesスクリプトのインデックスが手動で作成されます。",
        "set_text_img_emb_not_suppport_cuda": "お使いのデバイスは CUDA をサポートしていないようです。CPU を使用してイメージのセマンティック インデックスを作成するとパフォーマンスが低下する可能性があります。",
        "set_input_img_emb_max_recall_count": "自然セマンティック検索で各データベースから呼び出される結果の最大数",
        "set_text_help_img_emb_max_recall_count": "ナチュラル セマンティック検索では、指定された数の結果が期間ごとにデータベースから呼び出されます。数値が多すぎたり低すぎたりすると、クエリの精度が低下する可能性があります。",
        "set_input_day_begin_minutes": "「一日」毎日のタイムラインの最も早い時間",
        "set_help_day_begin_minutes": "毎日をゼロで割るのではなく、午前 0 時以降の一定期間のレコードを同じ自然な日に分割できます。",
        "set_checkbox_synonyms_recommand": "検索時に同義語を推奨する",
        "set_help_synonyms_recommand": "言語がサポートされていない場合、有効になりません。config_src\\synonyms でサポートされている言語を確認してください。",
        "set_checkbox_reduce_same_content_at_different_time": "ビデオ スライスに同じコンテンツが異なる時点で表示されている場合、最初のコンテンツのみが記録されます。",

        "qs_la_text_same_as_previous": "インターフェイス言語は以前と同じで日本語です。",
        "qs_un_set_your_username": "データベースの識別子として使用するユーザー名を設定してください。",
        "qs_un_describe": "Enterキーを押すと現在のユーザー名（{sys_username}）を使用することもできます。または、カスタムのユーザー名（20文字以内）を入力することもできます。",
        "qs_un_longer_than_expect": "制限の長さを超えています（半角英数字20文字/全角日本語10文字）",
        "qs_un_use_current_name": "現在のユーザー名を使用する：{sys_username}",
        "qs_un_use_custom_name": "カスタムのユーザー名を使用する：{your_username}",
        "qs_olang_intro": "システムには次の言語がインストールされています。OCR 検出のメイン言語として 1 つを選択してください:",
        "qs_olang_ocrlang_set_to": "OCR 検出のメイン言語は次のように設定されました:",
        "qs_olang_error": "入力は数値であり、オプションの範囲内である必要があります。",
        "qs_olang_one_choice_default_set": "システム言語は {os_support_lang} で、OCR 検出のメイン言語として適用されています。\n(必要な言語ではありませんか? 選択した言語の入力方式/言語パックがコンピュータにインストールされているかどうかを確認してください)システム。\n(https://learn.microsoft.com/en-us/uwp/api/windows.media.ocr)",
        "qs_ocr_title": "OCRエンジンのテスト結果：\n",
        "qs_ocr_result_describe": "精度：{accuracy}、認識時間：{timecost}、15分のビデオの索引作成に約かかる時間：{timecost_15}",
        "qs_ocr_describe": "> より高速で性能消費が低い、システム標準のWindows.Media.Ocr.Cliを使用することをお勧めします。\n",
        "qs_ocr_describe_disable_clo": "> chineseocr_lite_onnx は互換性の問題により無効になっています。\n (user_config.json の 'enable_ocr_chineseocr_lite_onnx':true を変更することで有効になります。)",
        "qs_ocr_tips_low_accuracy": "！ 精度低すぎませんか？ 選択した言語の入力方式/言語パックがシステムにインストールされているかどうかを確認してください。\n（https://learn.microsoft.com/en-us/uwp/api/windows.media.ocr）",
        "qs_ocr_cta": "画面のコンテンツを抽出する際のOCRエンジンを選択してください：",
        "qs_ocr_option_recommand": "（おすすめ＆デフォルト）",
        "qs_ocr_engine_chosen": "使用されるOCRエンジン：",
        "qs_mo_describe_all": "複数のモニターが検出されました。必要な記録モードは次のとおりです: (現在のオプションを直接適用するには Enter キーを押します)\n",
        "qs_mo_describe_single": "単一モニター ({width}x{height}) が検出されました。\n将来複数のモニターを使用する場合は、録画設定でいつでもマルチ画面録画モードを調整できます。\n",
        "qs_mo_option_all": "すべてのモニターを記録します",
        "qs_mo_option_single": "モニターの 1 つだけを記録します",
        "qs_mo_set_to": "記録モードは次のように設定されています:",
        "qs_mo_choose_one_display": "記録したいディスプレイを 1 つ選択してください:",
        "qs_mo_record_single": "記録モニターのみ:",
        "qs_mo_cta": "モニターの解像度は画面が録画されるたびに自動的に認識されるため、追加の設定は必要ありません。",
        "qs_et_describe": "Windrecorder にはいくつかの拡張機能も用意されており、後で拡張機能ディレクトリにインストールして使用できます。",
        "qs_end_describe": "おめでとう！ すべての初期設定が完了しました。 心配しないでください。設定はアプリ内でいつでも調整できます。 \n\nこれで、ディレクトリ内の [start_app.bat] を開いて使用を開始できます。 \n",
        "qs_end_slogan": "> 一緒に、あなたの目が見た、風のように過ぎ去るものをキャプチャしましょう。",
        "qs_end_feedback": "> 問題が発生した場合やフィードバックの提案がある場合は、https://github.com/yuka-friends/Windrecorder でissueやPRを提出してください。",

        "tray_add_flag_mark_note_for_now": "🚩 とりあえずマークを追加",
        "tray_webui_start": "🦝 検索/設定インターフェイスを開始します",
        "tray_webui_exit": "🦝 検索/設定インターフェイスを閉じます",
        "tray_webui_address": "🦝 ページに入るにはブラウザから {address_port} にアクセスしてください",
        "tray_webui_address_network": "      Network access: {address_port}",
        "tray_record_start": "▶️ 録音開始",
        "tray_record_stop": "⏸️ 録音を一時停止します",
        "tray_update_cta": "🚀 新しいバージョンに更新します: {version}",
        "tray_version_info": "🚀 現在は最新バージョン {version} です",
        "tray_updatelog": "🚀 更新ログを表示",
        "tray_exit": "❌ 終了",
        "tray_notify_title": "Windrecorder が録音中です",
        "tray_notify_title_record_pause": "Windrecorder は録音を一時停止しました",
        "tray_notify_text": "トレイの右クリック メニューを使用して、録画を一時停止し、メモリを巻き戻します",
        "tray_notify_text_start_without_record": "トレイの右クリック メニューを使用して記録を開始し、メモリを巻き戻します",
        "tray_tip_record": "Windrecorder - Recording",
        "tray_tip_record_pause": "Windrecorder - Recording Pause",
        "tray_text_already_run": "Windrecorder はシステムトレイですでに実行されています。",
        "flag_text_mark_added": "今回のマークが追加されました。",
        "flag_input_note": "メモ:",
        "flag_btn_remove_mark": "マークを削除",
        "flag_btn_add_note": "メモを追加"
    },

    "lang_map": {
        "en": "English",
        "sc": "简体中文",
        "ja": "日本語"
    }
}